^\\MAC\HOME\DOCUMENTS\ADS-106\SOURCE-ISHA KC\TICTACTOE\SOURCE.CPP
\\MAC\HOME\DOCUMENTS\ADS-106\SOURCE-ISHA KC\TICTACTOE\DEBUG\VC142.PDB
\\MAC\HOME\DOCUMENTS\ADS-106\SOURCE-ISHA KC\TICTACTOE\DEBUG\VC142.IDB
\\MAC\HOME\DOCUMENTS\ADS-106\SOURCE-ISHA KC\TICTACTOE\DEBUG\SOURCE.OBJ
^\\MAC\HOME\DOCUMENTS\ADS-106\SOURCE-ISHA KC\SOURCE.CPP
\\MAC\HOME\DOCUMENTS\ADS-106\SOURCE-ISHA KC\DEBUG\VC142.PDB
\\MAC\HOME\DOCUMENTS\ADS-106\SOURCE-ISHA KC\DEBUG\VC142.IDB
\\MAC\HOME\DOCUMENTS\ADS-106\SOURCE-ISHA KC\DEBUG\SOURCE.OBJ
